{
  "byOsIndexUrl":"https://c4gbau80xf.execute-api.eu-west-1.amazonaws.com/Prod/v1/index",
  "beSourceIdIndexUrl":     "https://q3ltr482zg.execute-api.eu-west-1.amazonaws.com/Prod/v1/id-index",
  "beSourcePersonIndexUrl": "https://gj0ls422u7.execute-api.eu-west-1.amazonaws.com/Prod/v1/id-index",
  "entityName": "Microsoft",
  "entityType": "person",
  "jurisdiction":"",
  "endpointType": "BeSourceOrganization",
  "timeout": 180
}